^C:\USERS\VICTOR\DROPBOX\VICTOR\UFMG\ATR\CODIGOS_APRENDIZADO\CRIANDO_THREAD\THREAD_1\THREAD_1\DEBUG\STDAFX.OBJ|C:\USERS\VICTOR\DROPBOX\VICTOR\UFMG\ATR\CODIGOS_APRENDIZADO\CRIANDO_THREAD\THREAD_1\THREAD_1\DEBUG\THREAD_1.EXE.EMBED.MANIFEST.RES|C:\USERS\VICTOR\DROPBOX\VICTOR\UFMG\ATR\CODIGOS_APRENDIZADO\CRIANDO_THREAD\THREAD_1\THREAD_1\DEBUG\THREAD_1.OBJ
/ERRORREPORT:PROMPT /OUT:"C:\Users\Victor\Dropbox\Victor\UFMG\atr\codigos_aprendizado\criando_thread\thread_1\Debug\thread_1.exe" /INCREMENTAL /NOLOGO kernel32.lib pthreadVC2.lib user32.lib gdi32.lib winspool.lib comdlg32.lib advapi32.lib shell32.lib ole32.lib oleaut32.lib uuid.lib odbc32.lib odbccp32.lib kernel32.lib user32.lib gdi32.lib winspool.lib comdlg32.lib advapi32.lib shell32.lib ole32.lib oleaut32.lib uuid.lib odbc32.lib odbccp32.lib /MANIFEST /ManifestFile:"Debug\thread_1.exe.intermediate.manifest" /MANIFESTUAC:"level='asInvoker' uiAccess='false'" /DEBUG /PDB:"C:\Users\Victor\Dropbox\Victor\UFMG\atr\codigos_aprendizado\criando_thread\thread_1\Debug\thread_1.pdb" /SUBSYSTEM:CONSOLE /TLBID:1 /DYNAMICBASE /NXCOMPAT /IMPLIB:"C:\Users\Victor\Dropbox\Victor\UFMG\atr\codigos_aprendizado\criando_thread\thread_1\Debug\thread_1.lib" /MACHINE:X86 Debug\thread_1.exe.embed.manifest.res
Debug\stdafx.obj
Debug\thread_1.obj
