^C:\USERS\VICTOR\DROPBOX\VICTOR\UFMG\ATR\CODIGOS_APRENDIZADO\CRIANDO_THREAD\THREAD_1\THREAD_1\DEBUG\STDAFX.OBJ|C:\USERS\VICTOR\DROPBOX\VICTOR\UFMG\ATR\CODIGOS_APRENDIZADO\CRIANDO_THREAD\THREAD_1\THREAD_1\DEBUG\THREAD_1.EXE.EMBED.MANIFEST.RES|C:\USERS\VICTOR\DROPBOX\VICTOR\UFMG\ATR\CODIGOS_APRENDIZADO\CRIANDO_THREAD\THREAD_1\THREAD_1\DEBUG\THREAD_1.OBJ
C:\USERS\VICTOR\DROPBOX\VICTOR\UFMG\ATR\CODIGOS_APRENDIZADO\CRIANDO_THREAD\THREAD_1\DEBUG\THREAD_1.ILK
C:\USERS\VICTOR\DROPBOX\VICTOR\UFMG\ATR\CODIGOS_APRENDIZADO\CRIANDO_THREAD\THREAD_1\DEBUG\THREAD_1.EXE
C:\USERS\VICTOR\DROPBOX\VICTOR\UFMG\ATR\CODIGOS_APRENDIZADO\CRIANDO_THREAD\THREAD_1\THREAD_1\DEBUG\THREAD_1.EXE.INTERMEDIATE.MANIFEST
C:\USERS\VICTOR\DROPBOX\VICTOR\UFMG\ATR\CODIGOS_APRENDIZADO\CRIANDO_THREAD\THREAD_1\DEBUG\THREAD_1.PDB
