^C:\USERS\VICTOR\DROPBOX\VICTOR\UFMG\ATR\CODIGOS_APRENDIZADO\CRIANDO_THREAD\THREAD_1\THREAD_1\DEBUG\STDAFX.OBJ|C:\USERS\VICTOR\DROPBOX\VICTOR\UFMG\ATR\CODIGOS_APRENDIZADO\CRIANDO_THREAD\THREAD_1\THREAD_1\DEBUG\THREAD_1.EXE.EMBED.MANIFEST.RES|C:\USERS\VICTOR\DROPBOX\VICTOR\UFMG\ATR\CODIGOS_APRENDIZADO\CRIANDO_THREAD\THREAD_1\THREAD_1\DEBUG\THREAD_1.OBJ
C:\PROGRAM FILES (X86)\MICROSOFT SDKS\WINDOWS\V7.0A\LIB\KERNEL32.LIB
C:\PROGRAM FILES (X86)\MICROSOFT VISUAL STUDIO 10.0\VC\LIB\PTHREADVC2.LIB
C:\PROGRAM FILES (X86)\MICROSOFT SDKS\WINDOWS\V7.0A\LIB\USER32.LIB
C:\PROGRAM FILES (X86)\MICROSOFT SDKS\WINDOWS\V7.0A\LIB\GDI32.LIB
C:\PROGRAM FILES (X86)\MICROSOFT SDKS\WINDOWS\V7.0A\LIB\WINSPOOL.LIB
C:\PROGRAM FILES (X86)\MICROSOFT SDKS\WINDOWS\V7.0A\LIB\COMDLG32.LIB
C:\PROGRAM FILES (X86)\MICROSOFT SDKS\WINDOWS\V7.0A\LIB\ADVAPI32.LIB
C:\PROGRAM FILES (X86)\MICROSOFT SDKS\WINDOWS\V7.0A\LIB\SHELL32.LIB
C:\PROGRAM FILES (X86)\MICROSOFT SDKS\WINDOWS\V7.0A\LIB\OLE32.LIB
C:\PROGRAM FILES (X86)\MICROSOFT SDKS\WINDOWS\V7.0A\LIB\OLEAUT32.LIB
C:\PROGRAM FILES (X86)\MICROSOFT SDKS\WINDOWS\V7.0A\LIB\UUID.LIB
C:\PROGRAM FILES (X86)\MICROSOFT SDKS\WINDOWS\V7.0A\LIB\ODBC32.LIB
C:\PROGRAM FILES (X86)\MICROSOFT SDKS\WINDOWS\V7.0A\LIB\ODBCCP32.LIB
C:\USERS\VICTOR\DROPBOX\VICTOR\UFMG\ATR\CODIGOS_APRENDIZADO\CRIANDO_THREAD\THREAD_1\THREAD_1\DEBUG\THREAD_1.EXE.EMBED.MANIFEST.RES
C:\USERS\VICTOR\DROPBOX\VICTOR\UFMG\ATR\CODIGOS_APRENDIZADO\CRIANDO_THREAD\THREAD_1\THREAD_1\DEBUG\STDAFX.OBJ
C:\USERS\VICTOR\DROPBOX\VICTOR\UFMG\ATR\CODIGOS_APRENDIZADO\CRIANDO_THREAD\THREAD_1\THREAD_1\DEBUG\THREAD_1.OBJ
C:\WINDOWS\SYSTEM32\TZRES.DLL
C:\USERS\VICTOR\DROPBOX\VICTOR\UFMG\ATR\CODIGOS_APRENDIZADO\CRIANDO_THREAD\THREAD_1\DEBUG\THREAD_1.ILK
C:\USERS\VICTOR\DROPBOX\VICTOR\UFMG\ATR\CODIGOS_APRENDIZADO\CRIANDO_THREAD\THREAD_1\DEBUG\THREAD_1.EXE
C:\USERS\VICTOR\DROPBOX\VICTOR\UFMG\ATR\CODIGOS_APRENDIZADO\CRIANDO_THREAD\THREAD_1\DEBUG\THREAD_1.PDB
C:\WINDOWS\GLOBALIZATION\SORTING\SORTDEFAULT.NLS
C:\PROGRAM FILES (X86)\MICROSOFT VISUAL STUDIO 10.0\VC\LIB\MSVCRTD.LIB
C:\PROGRAM FILES (X86)\MICROSOFT VISUAL STUDIO 10.0\VC\LIB\OLDNAMES.LIB
C:\PROGRAM FILES (X86)\MICROSOFT VISUAL STUDIO 10.0\VC\LIB\MSVCPRTD.LIB
