^C:\USERS\VICTOR\DROPBOX\VICTOR\UFMG\ATR\CODIGOS_APRENDIZADO\RESERVA_AVIOES_CARTEIRAS\RESERVA_AVIOES_CARTEIRAS\STDAFX.CPP
C:\USERS\VICTOR\DROPBOX\VICTOR\UFMG\ATR\CODIGOS_APRENDIZADO\RESERVA_AVIOES_CARTEIRAS\RESERVA_AVIOES_CARTEIRAS\DEBUG\VC100.PDB
C:\USERS\VICTOR\DROPBOX\VICTOR\UFMG\ATR\CODIGOS_APRENDIZADO\RESERVA_AVIOES_CARTEIRAS\RESERVA_AVIOES_CARTEIRAS\DEBUG\RESERVA_AVIOES_CARTEIRAS.PCH
C:\USERS\VICTOR\DROPBOX\VICTOR\UFMG\ATR\CODIGOS_APRENDIZADO\RESERVA_AVIOES_CARTEIRAS\RESERVA_AVIOES_CARTEIRAS\DEBUG\STDAFX.OBJ
^C:\USERS\VICTOR\DROPBOX\VICTOR\UFMG\ATR\CODIGOS_APRENDIZADO\RESERVA_AVIOES_CARTEIRAS\RESERVA_AVIOES_CARTEIRAS\RESERVA_AVIOES_CARTEIRAS.CPP
C:\USERS\VICTOR\DROPBOX\VICTOR\UFMG\ATR\CODIGOS_APRENDIZADO\RESERVA_AVIOES_CARTEIRAS\RESERVA_AVIOES_CARTEIRAS\DEBUG\RESERVA_AVIOES_CARTEIRAS.OBJ
C:\USERS\VICTOR\DROPBOX\VICTOR\UFMG\ATR\CODIGOS_APRENDIZADO\RESERVA_AVIOES_CARTEIRAS\RESERVA_AVIOES_CARTEIRAS\DEBUG\VC100.PDB
